{"page":1,"total_results":1687,"total_pages":85,"results":[{"vote_count":3439,"id":283366,"video":false,"vote_average":6.5,"title":"Miss Peregrine's Home for Peculiar Children","popularity":38.343459,"poster_path":"\/tzYkC0vqX8Dokuwynhz1lnWWgWT.jpg","original_language":"en","original_title":"Miss Peregrine's Home for Peculiar Children","genre_ids":[18,14,12],"backdrop_path":"\/9BVHn78oQcFCRd4M3u3NT7OrhTk.jpg","adult":false,"overview":"A teenager finds himself transported to an island where he must help protect a group of orphans with special powers from creatures intent on destroying them.","release_date":"2016-09-28"},{"vote_count":31,"id":415214,"video":false,"vote_average":6.7,"title":"Operation Mekong","popularity":27.483706,"poster_path":"\/en7TculN8sgH9v165QZg4y2Q1kW.jpg","original_language":"zh","original_title":"Mei Gong He Xing Dong","genre_ids":[28,12],"backdrop_path":"\/4Dj7I5Yoxf8biCbkyqdopbdL46e.jpg","adult":false,"overview":"Chinese narco-cops take their mission to the Golden Triangle following the Mekong River massacre of innocent fishermen by the region's drug lord.","release_date":"2016-09-30"},{"vote_count":47,"id":291413,"video":false,"vote_average":4.9,"title":"Within","popularity":27.312309,"poster_path":"\/4tMQZfEpYfNLRbFml6QOYoB2NQr.jpg","original_language":"en","original_title":"Within","genre_ids":[27,53],"backdrop_path":"\/abYksHVv56UF1HKJpc4DNHGaWuX.jpg","adult":false,"overview":"A thriller centered around a widower who moves into a seemingly perfect new home with his daughter and new wife.","release_date":"2016-10-18"},{"vote_count":3607,"id":324786,"video":false,"vote_average":7.9,"title":"Hacksaw Ridge","popularity":23.453475,"poster_path":"\/bndiUFfJxNd2fYx8XO610L9a07m.jpg","original_language":"en","original_title":"Hacksaw Ridge","genre_ids":[18,36,10752],"backdrop_path":"\/zBK4QZONMQXhcgaJv1YYTdCW7q9.jpg","adult":false,"overview":"WWII American Army Medic Desmond T. Doss, who served during the Battle of Okinawa, refuses to kill people and becomes the first Conscientious Objector in American history to receive the Congressional Medal of Honor.","release_date":"2016-10-07"},{"vote_count":1380,"id":302401,"video":false,"vote_average":7,"title":"Snowden","popularity":20.65492,"poster_path":"\/mWOotrG1MMKP9iCy2uPepbu27jk.jpg","original_language":"en","original_title":"Snowden","genre_ids":[18,53],"backdrop_path":"\/ycHZ9NgC8Cee7wAsHn4X7cgXeSL.jpg","adult":false,"overview":"CIA employee Edward Snowden leaks thousands of classified documents to the press.","release_date":"2016-09-15"},{"vote_count":1104,"id":136799,"video":false,"vote_average":6.7,"title":"Trolls","popularity":18.599648,"poster_path":"\/zKu5MNy9QW1a5ZHgv7iAp3kRZpE.jpg","original_language":"en","original_title":"Trolls","genre_ids":[12,16,10751],"backdrop_path":"\/wc1JxADaBLuWhySkaawCBTpixCo.jpg","adult":false,"overview":"Lovable and friendly, the trolls love to play around. But one day, a mysterious giant shows up to end the party. Poppy, the optimistic leader of the Trolls, and her polar opposite, Branch, must embark on an adventure that takes them far beyond the only world they’ve ever known.","release_date":"2016-10-13"},{"vote_count":1101,"id":258230,"video":false,"vote_average":6.8,"title":"A Monster Calls","popularity":17.94934,"poster_path":"\/vdHUj9cyRe7fIYdJFMyc7elnawC.jpg","original_language":"en","original_title":"A Monster Calls","genre_ids":[18,14],"backdrop_path":"\/xVW8REyVqKwxAtUYY07UGlZH43L.jpg","adult":false,"overview":"A boy imagines a monster that helps him deal with his difficult life and see the world in a different way.","release_date":"2016-10-07"},{"vote_count":2445,"id":207932,"video":false,"vote_average":5.7,"title":"Inferno","popularity":16.936549,"poster_path":"\/oFOG2yIRcluKfTtYbzz71Vj9bgz.jpg","original_language":"en","original_title":"Inferno","genre_ids":[9648,53],"backdrop_path":"\/anmLLbDx9d98NMZRyVUtxwJR6ab.jpg","adult":false,"overview":"After waking up in a hospital with amnesia, professor Robert Langdon and a doctor must race against time to foil a deadly global plot.","release_date":"2016-10-13"},{"vote_count":1968,"id":376867,"video":false,"vote_average":7.3,"title":"Moonlight","popularity":16.262702,"poster_path":"\/qAwFbszz0kRyTuXmMeKQZCX3Q2O.jpg","original_language":"en","original_title":"Moonlight","genre_ids":[18],"backdrop_path":"\/1ytaxWeVHDYtb7KPkrn3GNtDJdF.jpg","adult":false,"overview":"The tender, heartbreaking story of a young man’s struggle to find himself, told across three defining chapters in his life as he experiences the ecstasy, pain, and beauty of falling in love, while grappling with his own sexuality.","release_date":"2016-10-21"},{"vote_count":1907,"id":343611,"video":false,"vote_average":5.3,"title":"Jack Reacher: Never Go Back","popularity":16.016603,"poster_path":"\/IfB9hy4JH1eH6HEfIgIGORXi5h.jpg","original_language":"en","original_title":"Jack Reacher: Never Go Back","genre_ids":[28],"backdrop_path":"\/nDS8rddEK74HfAwCC5CoT6Cwzlt.jpg","adult":false,"overview":"Jack Reacher must uncover the truth behind a major government conspiracy in order to clear his name. On the run as a fugitive from the law, Reacher uncovers a potential secret from his past that could change his life forever.","release_date":"2016-10-19"},{"vote_count":1985,"id":346685,"video":false,"vote_average":6.2,"title":"The Girl on the Train","popularity":15.566144,"poster_path":"\/n8WNMt7stqHUZEE7bEtzK4FwrWe.jpg","original_language":"en","original_title":"The Girl on the Train","genre_ids":[80,18,9648,10749,53],"backdrop_path":"\/j8wWhGekyBPlgf2viVkptfwOyWi.jpg","adult":false,"overview":"Rachel Watson, devastated by her recent divorce, spends her daily commute fantasizing about the seemingly perfect couple who live in a house that her train passes every day, until one morning she sees something shocking happen there and becomes entangled in the mystery that unfolds.","release_date":"2016-10-05"},{"vote_count":658,"id":314095,"video":false,"vote_average":6.1,"title":"The Lost City of Z","popularity":14.825012,"poster_path":"\/uLHorVHuWQZ1HugTp0bbD19jef7.jpg","original_language":"en","original_title":"The Lost City of Z","genre_ids":[28,12,18,36],"backdrop_path":"\/dAQzSsITJVxyk9ChqPLyBEwtGuC.jpg","adult":false,"overview":"At the dawn of the 20th century, British explorer Percy Fawcett journeys into the Amazon, where he discovers evidence of a previously unknown, advanced civilization that may have once inhabited the region. Despite being ridiculed by the scientific establishment, which views indigenous populations as savages, the determined Fawcett, supported by his devoted wife, son, and aide-de-camp, returns to his beloved jungle in an attempt to prove his case.","release_date":"2016-10-15"},{"vote_count":496,"id":375366,"video":false,"vote_average":6.4,"title":"The Girl with All the Gifts","popularity":14.681536,"poster_path":"\/33IDooA29ctGHNE7gQW6cwbmRP3.jpg","original_language":"en","original_title":"The Girl with All the Gifts","genre_ids":[18,27,53],"backdrop_path":"\/1ovpL0Oc1mqy8fllLR511UJkKsj.jpg","adult":false,"overview":"In the future, a strange fungus has changed nearly everyone into a thoughtless, flesh-eating monster. When a scientist and a teacher find a girl who seems to be immune to the fungus, they all begin a journey to save humanity.","release_date":"2016-09-23"},{"vote_count":2220,"id":302946,"video":false,"vote_average":6.9,"title":"The Accountant","popularity":14.16984,"poster_path":"\/afhAUuWVB7k7PjJUd4lwO3rzhSq.jpg","original_language":"en","original_title":"The Accountant","genre_ids":[80,53,18],"backdrop_path":"\/uAcSvZ4BbK0mgkL8NfwzaGFvEvW.jpg","adult":false,"overview":"As a math savant uncooks the books for a new client, the Treasury Department closes in on his activities and the body count starts to rise.","release_date":"2016-10-14"},{"vote_count":5,"id":482114,"video":false,"vote_average":5,"title":"Scribe","popularity":13.761006,"poster_path":"\/5rRE78rZk07WNhWAHiNj3WaMkJ2.jpg","original_language":"fr","original_title":"La mécanique de l’ombre","genre_ids":[28,53],"backdrop_path":"\/lFmunqJJVe4ejUK4VjBckOyTIk2.jpg","adult":false,"overview":"Two years after a burn-out, Duval is still unemployed. Contacted by an enigmatic businessman, he is offered a simple and well-paid job: transcribing telephone tapping. Duval accepts financially without questioning the purpose of the organization that employs him. Precipitated at the heart of a political plot, he must face the brutal mechanics of the underground world of the secret services.","release_date":"2016-10-19"},{"vote_count":366,"id":345009,"video":false,"vote_average":6.5,"title":"Mine","popularity":13.670623,"poster_path":"\/xfQV6nTH6zpvhmdcTOoBR2Q4Z2M.jpg","original_language":"en","original_title":"Mine","genre_ids":[53,10752],"backdrop_path":"\/dEJryRu1avfAiRF2jZ90Iq14TPP.jpg","adult":false,"overview":"After a failed assassination attempt, a soldier finds himself stranded in the desert. Exposed to the elements, he must survive the dangers of the desert and battle the psychological and physical toll of the treacherous conditions.","release_date":"2016-10-06"},{"vote_count":1582,"id":296524,"video":false,"vote_average":6.5,"title":"Deepwater Horizon","popularity":13.300903,"poster_path":"\/7D6hM7IR0TbQmNvSZVtEiPM3H5h.jpg","original_language":"en","original_title":"Deepwater Horizon","genre_ids":[18,28],"backdrop_path":"\/1R2wRq5aZJHMmg3gUlqw2uSdj2t.jpg","adult":false,"overview":"A story set on the offshore drilling rig Deepwater Horizon, which exploded during April 2010 and created the worst oil spill in U.S. history.","release_date":"2016-09-29"},{"vote_count":205,"id":353979,"video":false,"vote_average":6,"title":"Pet","popularity":13.083413,"poster_path":"\/xP1pvDosae1wA0BO2WmiLqIQhNv.jpg","original_language":"en","original_title":"Pet","genre_ids":[27,53],"backdrop_path":"\/zaISgYggnHufdPJp8h8af6CFAGR.jpg","adult":false,"overview":"A man imprisons the woman he's still obsessed with after years apart, then finds the tables turned on him.","release_date":"2016-09-24"},{"vote_count":208,"id":284564,"video":false,"vote_average":4.9,"title":"31","popularity":12.805503,"poster_path":"\/rpxbMjrq4CDPY30dTRbvdQsUcud.jpg","original_language":"en","original_title":"31","genre_ids":[27,53],"backdrop_path":"\/xRCRGcmA6odM6LM0i2QdQWqQdrA.jpg","adult":false,"overview":"Five carnival workers are kidnapped and held hostage in an abandoned, Hell-like compound where they are forced to participate in a violent game, the goal of which is to survive twelve hours against a gang of sadistic clowns.","release_date":"2016-09-15"},{"vote_count":634,"id":331313,"video":false,"vote_average":5.9,"title":"Keeping Up with the Joneses","popularity":12.545389,"poster_path":"\/ekg8qeNidEQ1ylHeahLtsTLPe2k.jpg","original_language":"en","original_title":"Keeping Up with the Joneses","genre_ids":[28,35],"backdrop_path":"\/5TvnPSHJLhgnx1UU5rdUbUuZXjw.jpg","adult":false,"overview":"An ordinary suburban couple finds it’s not easy keeping up with the Joneses – their impossibly gorgeous and ultra-sophisticated new neighbors – especially when they discover that Mr. and Mrs. “Jones” are covert operatives.","release_date":"2016-10-20"}]}